module gitlab.com/irontechdev/healthcheck

go 1.19

require (
	github.com/prometheus/client_golang v1.16.0
	github.com/stretchr/testify v1.8.4
	gopkg.in/DATA-DOG/go-sqlmock.v1 v1.3.0
)

require (
	github.com/beorn7/perks v1.0.1 // indirect
	github.com/cespare/xxhash/v2 v2.2.0 // indirect
	github.com/davecgh/go-spew v1.1.1 // indirect
	github.com/golang/protobuf v1.5.3 // indirect
	github.com/kr/text v0.2.0 // indirect
	github.com/matttproud/golang_protobuf_extensions v1.0.4 // indirect
	github.com/pmezard/go-difflib v1.0.0 // indirect
	github.com/prometheus/client_model v0.3.0 // indirect
	github.com/prometheus/common v0.42.0 // indirect
	github.com/prometheus/procfs v0.10.1 // indirect
	github.com/rogpeppe/go-internal v1.11.0 // indirect
	golang.org/x/sys v0.8.0 // indirect
	google.golang.org/protobuf v1.30.0 // indirect
	gopkg.in/yaml.v3 v3.0.1 // indirect
)
